\relax 
\@writefile{toc}{\contentsline {section}{\numberline {1}Javaのインストール}{1}}
\@writefile{lof}{\contentsline {figure}{\numberline {1}{\ignorespaces インストーラーの取得}}{1}}
\newlabel{fig:install}{{1}{1}}
\@writefile{toc}{\contentsline {section}{\numberline {2}Javaの初期設定}{2}}
\@writefile{lof}{\contentsline {figure}{\numberline {2}{\ignorespaces 環境変数の設定}}{2}}
\newlabel{fig:setting}{{2}{2}}
